{
  "project_info": {
    "project_number": "785801643818",
    "firebase_url": "https://oiaccess-823fe.firebaseio.com",
    "project_id": "oiaccess-823fe",
    "storage_bucket": "oiaccess-823fe.appspot.com"
  },
  "client": [
    {
      "client_info": {
        "mobilesdk_app_id": "1:785123123818:android:6737171753e74a56",
        "android_client_info": {
          "package_name": "com.oiaccess.app"
        }
      },
      "oauth_client": [
        {
          "client_id": "785123123818-89hjard4hheuasdasdasd5tndoftq6s6hnmlt12k.apps.googleusercontent.com",
          "client_type": 3
        }
      ],
      "api_key": [
        {
          "current_key": "sadasdweqweqweasdasdasdasd"
        }
      ],
      "services": {
        "analytics_service": {
          "status": 1
        },
        "appinvite_service": {
          "status": 1,
          "other_platform_oauth_client": []
        },
        "ads_service": {
          "status": 2
        }
      }
    }
  ],
  "configuration_version": "1"
}